{
  "$schema": "http://json.schemastore.org/tslint",
  "extends": [
    "tslint:latest",
    "tslint-config-prettier"
  ],
  "rules": {
    "ban-types": false,
    "max-classes-per-file": false,
    "no-console": [true, "log", "debug", "trace"],
    "member-access": [true, "no-public"],
    "interface-name": false,
    "array-type": false,
    "ordered-imports": false,
    "object-literal-sort-keys": false,
    "callable-types": false
  }
}
